^D:\USERS\YAAKOVCO\INJECTED\INJECTED\PCH.CPP
/c /ZI /JMC /nologo /W3 /WX- /diagnostics:column /sdl /Od /Oy- /D WIN32 /D _DEBUG /D INJECTED_EXPORTS /D _WINDOWS /D _USRDLL /D _WINDLL /D _MBCS /Gm- /EHsc /RTC1 /MDd /GS /fp:precise /permissive- /Zc:wchar_t /Zc:forScope /Zc:inline /Yc"pch.h" /Fp"DEBUG\INJECTED.PCH" /Fo"DEBUG\\" /Fd"DEBUG\VC142.PDB" /Gd /TP /analyze- /FC D:\USERS\YAAKOVCO\INJECTED\INJECTED\PCH.CPP
^D:\USERS\YAAKOVCO\INJECTED\INJECTED\DLLMAIN.CPP
/c /ZI /JMC /nologo /W3 /WX- /diagnostics:column /sdl /Od /Oy- /D WIN32 /D _DEBUG /D INJECTED_EXPORTS /D _WINDOWS /D _USRDLL /D _WINDLL /D _MBCS /Gm- /EHsc /RTC1 /MDd /GS /fp:precise /permissive- /Zc:wchar_t /Zc:forScope /Zc:inline /Yu"pch.h" /Fp"DEBUG\INJECTED.PCH" /Fo"DEBUG\\" /Fd"DEBUG\VC142.PDB" /Gd /TP /analyze- /FC D:\USERS\YAAKOVCO\INJECTED\INJECTED\DLLMAIN.CPP
