^D:\USERS\YAAKOVCO\INJECTED\INJECTED\DEBUG\DLLMAIN.OBJ|D:\USERS\YAAKOVCO\INJECTED\INJECTED\DEBUG\PCH.OBJ
D:\USERS\YAAKOVCO\INJECTED\DEBUG\INJECTED.ILK
D:\USERS\YAAKOVCO\INJECTED\DEBUG\INJECTED.DLL
D:\USERS\YAAKOVCO\INJECTED\DEBUG\INJECTED.PDB
