^D:\USERS\YAAKOVCO\INJECTED\INJECTED\PCH.CPP
D:\USERS\YAAKOVCO\INJECTED\INJECTED\X64\DEBUG\INJECTED.PCH
D:\USERS\YAAKOVCO\INJECTED\INJECTED\X64\DEBUG\VC142.PDB
D:\USERS\YAAKOVCO\INJECTED\INJECTED\X64\DEBUG\VC142.IDB
D:\USERS\YAAKOVCO\INJECTED\INJECTED\X64\DEBUG\PCH.OBJ
^D:\USERS\YAAKOVCO\INJECTED\INJECTED\DLLMAIN.CPP
D:\USERS\YAAKOVCO\INJECTED\INJECTED\X64\DEBUG\VC142.PDB
D:\USERS\YAAKOVCO\INJECTED\INJECTED\X64\DEBUG\VC142.IDB
D:\USERS\YAAKOVCO\INJECTED\INJECTED\X64\DEBUG\DLLMAIN.OBJ
